{
  "files": {
    "main.css": "./static/css/main.861fc1ac.chunk.css",
    "main.js": "./main.cf5252db08534e2be950.bundle.js",
    "main.css.map": "./static/css/main.861fc1ac.chunk.css.map",
    "main.js.map": "./main.cf5252db08534e2be950.bundle.js.map",
    "runtime~main.js": "./runtime~main.cf5252db08534e2be950.bundle.js",
    "runtime~main.js.map": "./runtime~main.cf5252db08534e2be950.bundle.js.map",
    "vendors~main.js": "./vendors~main.cf5252db08534e2be950.bundle.js",
    "vendors~main.js.map": "./vendors~main.cf5252db08534e2be950.bundle.js.map",
    "iframe.html": "./iframe.html",
    "precache-manifest.edb674d424dabe1cd0557c9aebe8f52f.js": "./precache-manifest.edb674d424dabe1cd0557c9aebe8f52f.js",
    "service-worker.js": "./service-worker.js",
    "vendors~main.cf5252db08534e2be950.bundle.js.LICENSE.txt": "./vendors~main.cf5252db08534e2be950.bundle.js.LICENSE.txt"
  },
  "entrypoints": [
    "runtime~main.cf5252db08534e2be950.bundle.js",
    "vendors~main.cf5252db08534e2be950.bundle.js",
    "static/css/main.861fc1ac.chunk.css",
    "main.cf5252db08534e2be950.bundle.js"
  ]
}